<?xml version="1.0" encoding="UTF-8" standalone="no"?>
<!-- Created with Inkscape (http://www.inkscape.org/) -->

<svg
   xmlns:dc="http://purl.org/dc/elements/1.1/"
   xmlns:cc="http://creativecommons.org/ns#"
   xmlns:rdf="http://www.w3.org/1999/02/22-rdf-syntax-ns#"
   xmlns:svg="http://www.w3.org/2000/svg"
   xmlns="http://www.w3.org/2000/svg"
   xmlns:sodipodi="http://sodipodi.sourceforge.net/DTD/sodipodi-0.dtd"
   xmlns:inkscape="http://www.inkscape.org/namespaces/inkscape"
   width="744.09448819"
   height="1052.3622047"
   id="svg2"
   version="1.1"
   inkscape:version="0.48.2 r9819"
   sodipodi:docname="New document 1">
  <defs
     id="defs4" />
  <sodipodi:namedview
     id="base"
     pagecolor="#ffffff"
     bordercolor="#666666"
     borderopacity="1.0"
     inkscape:pageopacity="0.0"
     inkscape:pageshadow="2"
     inkscape:zoom="0.175"
     inkscape:cx="266.80378"
     inkscape:cy="658.58625"
     inkscape:document-units="px"
     inkscape:current-layer="layer1"
     showgrid="false"
     inkscape:window-width="671"
     inkscape:window-height="418"
     inkscape:window-x="1618"
     inkscape:window-y="732"
     inkscape:window-maximized="0" />
  <metadata
     id="metadata7">
    <rdf:RDF>
      <cc:Work
         rdf:about="">
        <dc:format>image/svg+xml</dc:format>
        <dc:type
           rdf:resource="http://purl.org/dc/dcmitype/StillImage" />
        <dc:title></dc:title>
      </cc:Work>
    </rdf:RDF>
  </metadata>
  <g
     inkscape:label="Layer 1"
     inkscape:groupmode="layer"
     id="layer1">
    <path
       style="fill:#ffffff;fill-opacity:1;stroke:#000000;stroke-width:0.17405652;stroke-linecap:round;stroke-linejoin:round;stroke-miterlimit:4;stroke-opacity:1;stroke-dasharray:none"
       d="m 666.80329,664.72811 c -6.07061,0.0541 -14.7454,3.06379 -26.0625,9.625 -23.81185,13.80517 -39.16488,49.70077 -59.80314,63.20939 -24.1678,15.81885 -79.5555,25.85318 -100.38436,45.63436 -14.97869,15.06724 -0.94855,27.84692 29.84375,22.03125 30.7923,-5.81567 83.83046,-26.01528 94.53125,-41.46875 0.93388,-1.34865 1.70522,-2.65101 2.34375,-3.90625 0.39556,-0.27179 0.78822,-0.52909 1.1875,-0.8125 25.55363,-18.13836 65.32057,-58.61547 68.59375,-77.125 1.94345,-10.99004 -1.37756,-17.26655 -10.25,-17.1875 z"
       id="path3316" />
    <path
       style="fill:#ffffff;fill-opacity:1;stroke:#000000;stroke-width:0.17405652;stroke-linecap:round;stroke-linejoin:round;stroke-miterlimit:4;stroke-opacity:1;stroke-dasharray:none"
       d="m 680.52883,615.76946 c -8.2984,0.1759 -16.3348,2.67054 -23.1875,8.09375 -21.9287,17.35427 -17.061,41.80792 -8.2813,65.15625 8.7798,23.34833 39.6169,28.82323 59.75,12.09375 20.1332,-16.72948 36.0781,-36.49517 20.3125,-59.25 -10.8388,-15.64395 -30.3372,-26.48073 -48.5937,-26.09375 z"
       id="path3133"
       inkscape:connector-curvature="0" />
    <path
       style="fill:#ffffff;fill-opacity:1;stroke:#000000;stroke-width:0.24191588;stroke-linecap:round;stroke-linejoin:round;stroke-miterlimit:4;stroke-opacity:1;stroke-dasharray:none"
       d="m 400.22944,580.875 c -9.35478,0.0103 -19.03549,2.73735 -29.3122,8.99327 -32.23839,19.62503 -36.51581,94.20442 -23.64116,161.6781 -28.26841,24.53529 -24.26426,67.52812 -18.21822,113.13854 6.20441,46.80525 53.79764,39.07452 97.25837,24.08911 5.79182,-1.99705 10.59687,-4.52793 14.53205,-7.46763 34.00352,8.7456 70.08592,1.34108 91.33922,-19.67277 39.9769,-39.52651 5.56611,-181.88358 -39.59096,-221.45925 -34.57339,-30.30012 -61.80816,-59.33375 -92.3671,-59.29937 z"
       id="path3115"
       inkscape:connector-curvature="0" />
    <path
       sodipodi:type="star"
       style="fill:#ffffff;fill-opacity:1;stroke:#000000;stroke-width:0.25;stroke-linecap:round;stroke-linejoin:round;stroke-miterlimit:4;stroke-opacity:1;stroke-dasharray:none"
       id="path3120"
       sodipodi:sides="4"
       sodipodi:cx="94.954338"
       sodipodi:cy="708.91034"
       sodipodi:r1="53.030602"
       sodipodi:r2="37.498299"
       sodipodi:arg1="0.70449406"
       sodipodi:arg2="1.4898922"
       inkscape:flatsided="true"
       inkscape:rounded="0.39"
       inkscape:randomized="-0.233"
       d="m 146.71871,732.31362 c -23.87944,22.26327 -71.895001,33.20981 -98.426149,17.15623 -26.531148,-16.05358 -8.759769,-57.00371 12.873058,-72.23259 21.632827,-15.22888 61.048971,-32.90313 75.970991,-6.52528 14.92202,26.37785 33.46154,39.33837 9.5821,61.60164 z"
       inkscape:transform-center-x="-1.436724"
       inkscape:transform-center-y="-1.8091164"
       transform="matrix(0.88531174,0,0,1.0203398,246.44182,-57.819619)" />
    <path
       sodipodi:type="star"
       style="fill:#ffffff;fill-opacity:1;stroke:#000000;stroke-width:0.25;stroke-linecap:round;stroke-linejoin:round;stroke-miterlimit:4;stroke-opacity:1;stroke-dasharray:none"
       id="path3111"
       sodipodi:sides="4"
       sodipodi:cx="139.40105"
       sodipodi:cy="648.30115"
       sodipodi:r1="88.363815"
       sodipodi:r2="62.482651"
       sodipodi:arg1="0.18394346"
       sodipodi:arg2="0.96934162"
       inkscape:flatsided="true"
       inkscape:rounded="0.39"
       inkscape:randomized="-0.233"
       d="m 241.93027,652.72171 c -1.81193,52.66917 -74.20825,65.31029 -122.00608,65.35517 -47.797823,0.0449 -73.668108,-35.77457 -50.836147,-83.57351 22.831962,-47.79894 24.911835,-72.81319 67.981607,-55.50815 43.06977,17.30503 106.67256,21.05732 104.86062,73.72649 z"
       inkscape:transform-center-x="-11.921509"
       inkscape:transform-center-y="-2.5087114"
       transform="translate(268.70058,-58.588848)" />
    <path
       sodipodi:type="star"
       style="fill:#ffffff;fill-opacity:1;stroke:#000000;stroke-width:0.25;stroke-linecap:round;stroke-linejoin:round;stroke-miterlimit:4;stroke-opacity:1;stroke-dasharray:none"
       id="path3051"
       sodipodi:sides="4"
       sodipodi:cx="37.142857"
       sodipodi:cy="220.93361"
       sodipodi:r1="208.591"
       sodipodi:r2="147.49611"
       sodipodi:arg1="1.5570986"
       sodipodi:arg2="2.3424967"
       inkscape:flatsided="true"
       inkscape:rounded="0.39"
       inkscape:randomized="-0.233"
       d="M -4.5108044,462.83543 C -125.80332,438.48728 -148.13526,368.38545 -180.2042,260.56958 -212.27315,152.7537 -123.46643,57.789532 2.6929284,48.903589 128.85228,40.017645 260.65419,76.899734 280.4132,189.91816 300.17221,302.93658 116.78171,487.18358 -4.5108044,462.83543 z"
       inkscape:transform-center-x="0.96919586"
       inkscape:transform-center-y="3.6152861"
       transform="matrix(0.14554847,-0.18576888,0.1063766,0.3986829,190.46839,193.11688)" />
    <path
       sodipodi:type="star"
       style="fill:#ffffff;fill-opacity:1;stroke:#000000;stroke-width:0.25;stroke-linecap:round;stroke-linejoin:round;stroke-miterlimit:4;stroke-opacity:1;stroke-dasharray:none"
       id="path3049"
       sodipodi:sides="4"
       sodipodi:cx="-145.71429"
       sodipodi:cy="178.07648"
       sodipodi:r1="171.16647"
       sodipodi:r2="121.03297"
       sodipodi:arg1="1.3177207"
       sodipodi:arg2="2.1031188"
       inkscape:flatsided="true"
       inkscape:rounded="0.39"
       inkscape:randomized="-0.233"
       d="m -131.78393,318.06035 c -92.96143,-8.87921 -135.05763,13.40076 -170.74503,-67.04921 -35.6874,-80.44997 42.72446,-269.459137 147.66214,-274.195729 C -49.929133,-27.92118 5.7574774,47.160675 47.829339,137.2019 89.9012,227.24313 -38.822507,326.93956 -131.78393,318.06035 z"
       inkscape:transform-center-x="19.244128"
       inkscape:transform-center-y="-7.730633"
       transform="matrix(0.21225083,-0.09286324,0.53486862,0.40538322,554.61453,151.50407)" />
    <path
       sodipodi:type="star"
       style="fill:#ffffff;fill-opacity:1;stroke:#000000;stroke-width:0.25;stroke-linecap:round;stroke-linejoin:round;stroke-miterlimit:4;stroke-opacity:1;stroke-dasharray:none"
       id="path3047"
       sodipodi:sides="4"
       sodipodi:cx="-254.28571"
       sodipodi:cy="240.93361"
       sodipodi:r1="84.948967"
       sodipodi:r2="60.067989"
       sodipodi:arg1="0.73781506"
       sodipodi:arg2="1.5232132"
       inkscape:flatsided="true"
       inkscape:rounded="0.39"
       inkscape:randomized="-0.233"
       d="m -202.63858,300.18954 c -28.78092,41.19812 -62.34939,40.16415 -104.47755,12.23946 -42.12816,-27.92468 -35.04982,-75.30298 -13.6987,-119.72557 21.35112,-44.42259 109.74489,-35.89082 136.02282,1.98683 26.27793,37.87764 10.93435,64.30115 -17.84657,105.49928 z"
       inkscape:transform-center-x="3.1319009"
       inkscape:transform-center-y="-5.1869638"
       transform="matrix(-0.40006951,0.2562625,-0.92247455,-0.83699447,412.62047,540.47679)" />
    <path
       sodipodi:type="star"
       style="fill:#ffffff;fill-opacity:1;stroke:#000000;stroke-width:0.25;stroke-linecap:round;stroke-linejoin:round;stroke-miterlimit:4;stroke-opacity:1;stroke-dasharray:none"
       id="path3045"
       sodipodi:sides="4"
       sodipodi:cx="-200"
       sodipodi:cy="306.64789"
       sodipodi:r1="115.17511"
       sodipodi:r2="59.00536"
       sodipodi:arg1="0.40814912"
       sodipodi:arg2="1.1935473"
       inkscape:flatsided="true"
       inkscape:rounded="0.39"
       inkscape:randomized="-0.233"
       d="m -103.92077,342.97788 c -3.84045,68.55543 -90.15266,87.04064 -156.45979,82.06576 -66.30714,-4.97488 -60.68205,-120.56661 -48.9054,-181.61304 11.77664,-61.04644 90.811,-60.36233 155.57596,-48.90809 64.764969,11.45424 53.62968,79.89993 49.78923,148.45537 z"
       inkscape:transform-center-x="-1.682728"
       inkscape:transform-center-y="-9.4380211"
       transform="matrix(0.35334122,0.10531804,-0.62327054,0.77406472,746.1744,29.117804)" />
    <path
       style="fill:#ffffff;fill-opacity:1;stroke:#000000;stroke-width:0.11479792;stroke-linecap:round;stroke-linejoin:round;stroke-miterlimit:4;stroke-opacity:1"
       d="m 380.48197,256.86232 c -26.53277,-0.24024 -54.32823,9.10025 -67.42825,41.01629 -12.5657,30.61433 -17.02399,62.89796 -11.22157,92.62444 -18.47869,19.14801 -32.95612,44.99899 -31.03526,76.77836 2.93148,48.4994 20.23458,87.96046 52.03406,104.56734 31.47922,16.43964 48.70091,38.76555 79.4152,15.81271 2.67616,0.70237 5.54536,1.2085 8.65383,1.5012 35.95246,3.38544 84.20576,-23.77322 112.09233,-48.50563 27.88658,-24.73241 22.78501,-90.03735 -0.37034,-126.00124 -5.68584,-8.83099 -11.48184,-16.65295 -17.44345,-23.55227 -0.38387,-24.41669 -7.49784,-50.53641 -19.35692,-68.95541 -23.15536,-35.9639 -47.92472,-55.41437 -79.82258,-62.33342 -7.97448,-1.72976 -16.67281,-2.87229 -25.51705,-2.95237 z"
       id="path2985"
       inkscape:connector-curvature="0" />
    <path
       sodipodi:type="star"
       style="fill:#000000;fill-opacity:1;stroke:#000000;stroke-width:0.25;stroke-linecap:round;stroke-linejoin:round;stroke-miterlimit:4;stroke-opacity:1;stroke-dasharray:none"
       id="path3020"
       sodipodi:sides="4"
       sodipodi:cx="-137.14285"
       sodipodi:cy="506.64789"
       sodipodi:r1="40.607632"
       sodipodi:r2="28.71393"
       sodipodi:arg1="0.88506682"
       sodipodi:arg2="1.670465"
       inkscape:flatsided="true"
       inkscape:rounded="0.39"
       inkscape:randomized="-0.233"
       d="m -116.78722,539.08656 c -16.49854,17.46199 -50.29693,17.68277 -58.78561,-5.11028 -8.48867,-22.79305 -9.48126,-40.2637 9.55872,-55.83667 19.03998,-15.57297 42.97865,-10.13514 51.57876,9.22318 8.60012,19.35833 14.14667,34.26178 -2.35187,51.72377 z"
       inkscape:transform-center-x="3.566013"
       inkscape:transform-center-y="1.1206978"
       transform="matrix(0.53831234,0,0,0.30004639,468.21558,320.55096)" />
    <path
       sodipodi:type="star"
       style="fill:#ffffff;fill-opacity:1;stroke:#000000;stroke-width:0.25;stroke-linecap:round;stroke-linejoin:round;stroke-miterlimit:4;stroke-opacity:1;stroke-dasharray:none"
       id="path3016-0"
       sodipodi:sides="4"
       sodipodi:cx="-34.285713"
       sodipodi:cy="366.64789"
       sodipodi:r1="99.672935"
       sodipodi:r2="70.479408"
       sodipodi:arg1="1.0943289"
       sodipodi:arg2="1.8797271"
       inkscape:flatsided="true"
       inkscape:rounded="0.39"
       inkscape:randomized="-0.233"
       d="m 19.4758,477.27649 c -43.123187,36.26818 -109.539531,2.03948 -122.20868,-46.39668 -12.66915,-48.43615 -7.36809,-132.92004 45.656404,-153.33249 53.024495,-20.41246 84.457712,2.17784 106.058441,50.77556 C 70.582695,376.9206 62.598987,441.0083 19.4758,477.27649 z"
       inkscape:transform-center-x="-3.1428444"
       inkscape:transform-center-y="4.4423019"
       transform="matrix(0.3047252,0,0,0.3047252,350.44242,290.26588)" />
    <path
       sodipodi:type="star"
       style="fill:#000000;fill-opacity:1;stroke:#000000;stroke-width:0.25;stroke-linecap:round;stroke-linejoin:round;stroke-miterlimit:4;stroke-opacity:1;stroke-dasharray:none"
       id="path3020-4"
       sodipodi:sides="4"
       sodipodi:cx="-137.14285"
       sodipodi:cy="506.64789"
       sodipodi:r1="40.607632"
       sodipodi:r2="28.71393"
       sodipodi:arg1="0.88506682"
       sodipodi:arg2="1.670465"
       inkscape:flatsided="true"
       inkscape:rounded="0.39"
       inkscape:randomized="-0.233"
       d="m -116.78722,539.08656 c -16.49854,17.46199 -50.29693,17.68277 -58.78561,-5.11028 -8.48867,-22.79305 -9.48126,-40.2637 9.55872,-55.83667 19.03998,-15.57297 42.97865,-10.13514 51.57876,9.22318 8.60012,19.35833 14.14667,34.26178 -2.35187,51.72377 z"
       inkscape:transform-center-x="2.6097686"
       inkscape:transform-center-y="2.0615485"
       transform="matrix(0.39396086,0,0,0.55194321,396.63869,124.94549)" />
    <path
       style="fill:#ffffff;fill-opacity:1;stroke:#000000;stroke-width:5.16667843;stroke-linecap:round;stroke-linejoin:round;stroke-miterlimit:4;stroke-opacity:1"
       inkscape:transform-center-x="7.2907378"
       inkscape:transform-center-y="0.53295222"
       d="m 440.30757,525.69768 c 13.5736,5.29967 3.65041,38.87728 -19.29698,41.1274 -22.9474,2.25014 -50.0516,-24.45629 -63.41612,-30.20075 -13.36451,-5.74443 22.90859,-10.36037 40.24286,-13.88515 17.33427,-3.52475 28.89665,-2.3412 42.47024,2.9585 z"
       id="path3040"
       inkscape:connector-curvature="0"
       sodipodi:nodetypes="sssss" />
    <path
       sodipodi:type="star"
       style="fill:#000000;fill-opacity:1;stroke:#000000;stroke-width:0.25;stroke-linecap:round;stroke-linejoin:round;stroke-miterlimit:4;stroke-opacity:1;stroke-dasharray:none"
       id="path3016-9"
       sodipodi:sides="4"
       sodipodi:cx="-34.285713"
       sodipodi:cy="366.64789"
       sodipodi:r1="99.672935"
       sodipodi:r2="70.479408"
       sodipodi:arg1="1.0943289"
       sodipodi:arg2="1.8797271"
       inkscape:flatsided="true"
       inkscape:rounded="0.39"
       inkscape:randomized="-0.233"
       d="m 19.4758,477.27649 c -43.123187,36.26818 -109.539531,2.03948 -122.20868,-46.39668 -12.66915,-48.43615 -7.36809,-132.92004 45.656404,-153.33249 53.024495,-20.41246 84.457712,2.17784 106.058441,50.77556 C 70.582695,376.9206 62.598987,441.0083 19.4758,477.27649 z"
       inkscape:transform-center-x="-4.2218267"
       inkscape:transform-center-y="5.9674007"
       transform="matrix(0.40934137,0,0,0.40934137,456.95559,243.45349)" />
    <path
       sodipodi:type="star"
       style="fill:#ffffff;fill-opacity:1;stroke:#000000;stroke-width:0.25;stroke-linecap:round;stroke-linejoin:round;stroke-miterlimit:4;stroke-opacity:1;stroke-dasharray:none"
       id="path3016-0-4"
       sodipodi:sides="4"
       sodipodi:cx="-34.285713"
       sodipodi:cy="366.64789"
       sodipodi:r1="99.672935"
       sodipodi:r2="70.479408"
       sodipodi:arg1="1.0943289"
       sodipodi:arg2="1.8797271"
       inkscape:flatsided="true"
       inkscape:rounded="0.39"
       inkscape:randomized="-0.233"
       d="m 19.4758,477.27649 c -43.123187,36.26818 -109.539531,2.03948 -122.20868,-46.39668 -12.66915,-48.43615 -7.36809,-132.92004 45.656404,-153.33249 53.024495,-20.41246 84.457712,2.17784 106.058441,50.77556 C 70.582695,376.9206 62.598987,441.0083 19.4758,477.27649 z"
       inkscape:transform-center-x="-3.1428444"
       inkscape:transform-center-y="4.4423019"
       transform="matrix(0.3047252,0,0,0.3047252,460.12871,286.98079)" />
    <path
       sodipodi:type="star"
       style="fill:#000000;fill-opacity:1;stroke:#000000;stroke-width:0.25;stroke-linecap:round;stroke-linejoin:round;stroke-miterlimit:4;stroke-opacity:1;stroke-dasharray:none"
       id="path3020-8"
       sodipodi:sides="4"
       sodipodi:cx="-137.14285"
       sodipodi:cy="506.64789"
       sodipodi:r1="40.607632"
       sodipodi:r2="28.71393"
       sodipodi:arg1="0.88506682"
       sodipodi:arg2="1.670465"
       inkscape:flatsided="true"
       inkscape:rounded="0.39"
       inkscape:randomized="-0.233"
       d="m -116.78722,539.08656 c -16.49854,17.46199 -50.29693,17.68277 -58.78561,-5.11028 -8.48867,-22.79305 -9.48126,-40.2637 9.55872,-55.83667 19.03998,-15.57297 42.97865,-10.13514 51.57876,9.22318 8.60012,19.35833 14.14667,34.26178 -2.35187,51.72377 z"
       inkscape:transform-center-x="2.6097686"
       inkscape:transform-center-y="2.0615485"
       transform="matrix(0.39396086,0,0,0.55194321,519.70053,123.96688)" />
    <path
       sodipodi:type="star"
       style="fill:#ffffff;fill-opacity:1;stroke:#000000;stroke-width:0.25;stroke-linecap:round;stroke-linejoin:round;stroke-miterlimit:4;stroke-opacity:1;stroke-dasharray:none"
       id="path3107"
       sodipodi:sides="4"
       sodipodi:cx="179.80714"
       sodipodi:cy="668.50421"
       sodipodi:r1="46.114323"
       sodipodi:r2="32.60775"
       sodipodi:arg1="1.0679531"
       sodipodi:arg2="1.8533513"
       inkscape:flatsided="true"
       inkscape:rounded="0.39"
       inkscape:randomized="-0.233"
       d="m 207.77503,699.79646 c -22.83541,12.31125 -56.63627,15.92648 -72.77887,-4.47018 -16.14259,-20.39667 -10.15348,-56.31177 12.1853,-73.39945 22.33877,-17.08769 56.32931,10.04736 72.77921,28.33885 16.4499,18.29149 10.64977,37.21953 -12.18564,49.53078 z"
       inkscape:transform-center-x="2.1077805"
       inkscape:transform-center-y="-6.0303768"
       transform="matrix(0.96085957,0,0,1.1297764,362.52556,-112.32733)" />
    <path
       sodipodi:type="star"
       style="fill:#ffffff;fill-opacity:1;stroke:#000000;stroke-width:0.25;stroke-linecap:round;stroke-linejoin:round;stroke-miterlimit:4;stroke-opacity:1;stroke-dasharray:none"
       id="path3113"
       sodipodi:sides="4"
       sodipodi:cx="169.70563"
       sodipodi:cy="632.13873"
       sodipodi:r1="26.954231"
       sodipodi:r2="19.059521"
       sodipodi:arg1="-0.22679885"
       sodipodi:arg2="0.55859932"
       inkscape:flatsided="true"
       inkscape:rounded="0.39"
       inkscape:randomized="-0.233"
       d="m 196.96912,628.79578 c 7.84993,13.47699 -2.66443,33.80689 -18.18733,34.0861 -15.5229,0.27922 -36.14954,-11.97201 -35.24997,-27.6648 0.89957,-15.69278 5.22813,-31.60253 18.1744,-35.1712 12.94626,-3.56867 27.41297,15.2729 35.2629,28.7499 z"
       inkscape:transform-center-x="-1.8631806"
       inkscape:transform-center-y="-0.89320414"
       transform="translate(96.974649,28.284271)" />
    <path
       sodipodi:type="star"
       style="fill:#ffffff;fill-opacity:1;stroke:#000000;stroke-width:0.25;stroke-linecap:round;stroke-linejoin:round;stroke-miterlimit:4;stroke-opacity:1;stroke-dasharray:none"
       id="path3135"
       sodipodi:sides="4"
       sodipodi:cx="569.72601"
       sodipodi:cy="599.81384"
       sodipodi:r1="42.952274"
       sodipodi:r2="30.371845"
       sodipodi:arg1="0.85196633"
       sodipodi:arg2="1.6373645"
       inkscape:flatsided="true"
       inkscape:rounded="0.39"
       inkscape:randomized="-0.233"
       d="m 603.03719,622.47244 c -20.70642,11.94127 -52.24467,18.83553 -71.75937,7.70568 -19.5147,-11.12985 -8.81573,-50.67367 8.43905,-64.39892 17.25477,-13.72526 43.72191,-15.42231 62.74837,1.50079 19.02645,16.92309 21.27838,43.25119 0.57195,55.19245 z"
       inkscape:transform-center-x="0.340396"
       inkscape:transform-center-y="-3.5203092"
       transform="matrix(0.70859016,0,0,0.80063774,143.66042,219.71893)" />
    <path
       sodipodi:type="star"
       style="fill:#ffffff;fill-opacity:1;stroke:#000000;stroke-width:0.25;stroke-linecap:round;stroke-linejoin:round;stroke-miterlimit:4;stroke-opacity:1;stroke-dasharray:none"
       id="path3137"
       sodipodi:sides="4"
       sodipodi:cx="242.43661"
       sodipodi:cy="910.94086"
       sodipodi:r1="74.285713"
       sodipodi:r2="52.527931"
       sodipodi:arg1="0.39060704"
       sodipodi:arg2="1.1760052"
       inkscape:flatsided="true"
       inkscape:rounded="0.39"
       inkscape:randomized="-0.233"
       d="m 304.11294,952.93761 c -26.90422,28.91816 -63.24562,47.89009 -96.87168,20.78822 -33.62606,-27.10191 -53.97335,-61.13393 -37.79041,-100.5609 16.18294,-39.42697 53.20786,-30.23296 96.90731,-17.79771 43.69945,12.43525 64.659,68.65222 37.75478,97.57039 z"
       inkscape:transform-center-x="1.2819499"
       inkscape:transform-center-y="5.0767545"
       transform="matrix(0.80383055,-0.59485834,0.43073767,0.5820547,-266.08178,504.98313)" />
    <path
       sodipodi:type="star"
       style="fill:#ffffff;fill-opacity:1;stroke:#000000;stroke-width:0.25;stroke-linecap:round;stroke-linejoin:round;stroke-miterlimit:4;stroke-opacity:1;stroke-dasharray:none"
       id="path3139"
       sodipodi:sides="4"
       sodipodi:cx="654.57886"
       sodipodi:cy="886.69714"
       sodipodi:r1="57.42786"
       sodipodi:r2="40.607632"
       sodipodi:arg1="0.88506682"
       sodipodi:arg2="1.670465"
       inkscape:flatsided="true"
       inkscape:rounded="0.39"
       inkscape:randomized="-0.233"
       d="m 690.52013,934.77585 c -20.88516,20.00611 -67.90691,16.41157 -86.28662,-8.94905 -18.3797,-25.36063 -17.31348,-61.34107 10.90323,-71.18177 28.2167,-9.84069 70.42459,-22.09777 86.28662,8.94906 15.86203,31.04682 9.98193,51.17566 -10.90323,71.18176 z"
       inkscape:transform-center-x="4.7722832"
       inkscape:transform-center-y="8.9990189"
       transform="matrix(1.4086452,0,0,0.99955092,-359.04009,-3.6383649)" />
    <path
       style="fill:#ffffff;fill-opacity:1;stroke:#000000;stroke-width:0.19973779;stroke-linecap:round;stroke-linejoin:round;stroke-miterlimit:4;stroke-opacity:1;stroke-dasharray:none"
       d="m 499.74483,760.84677 c -4.19806,5.70454 -9.38618,11.0898 -15.62948,16.00399 -38.55019,30.34343 -69.98586,28.68066 -105.78613,5.8673 -2.37315,-1.51226 -4.65356,-3.06708 -6.84102,-4.69384 6.25795,16.69827 17.68793,30.32952 32.9068,34.75438 37.32859,10.85321 66.98008,22.56758 85.48778,-20.09862 4.79336,-11.05024 8.11865,-21.69933 9.86205,-31.83321 z"
       id="path3141"
       inkscape:connector-curvature="0" />
  </g>
</svg>
